<svg width="40" height="40" viewBox="0 0 40 40" fill="none" xmlns="http://www.w3.org/2000/svg">
<path d="M0 8C0 3.58172 3.58172 0 8 0H32C36.4183 0 40 3.58172 40 8V32C40 36.4183 36.4183 40 32 40H8C3.58172 40 0 36.4183 0 32V8Z" fill="white" fill-opacity="0.9"/>
<path d="M16.505 30.6248C25.3105 30.6248 30.1259 23.3318 30.1259 17.0075C30.1259 16.8003 30.1217 16.5941 30.1124 16.3889C31.0471 15.7133 31.8595 14.8703 32.5003 13.9106C31.6426 14.2917 30.7195 14.5483 29.7512 14.664C30.7395 14.0715 31.4983 13.1342 31.8563 12.0169C30.9314 12.5651 29.9071 12.9635 28.8164 13.1786C27.9429 12.2484 26.6992 11.6665 25.3221 11.6665C22.6784 11.6665 20.5346 13.8099 20.5346 16.4518C20.5346 16.8274 20.5766 17.1927 20.6587 17.5431C16.6799 17.343 13.1519 15.4385 10.7907 12.5427C10.3796 13.25 10.1425 14.0715 10.1425 14.9482C10.1425 16.6086 10.9877 18.0745 12.2729 18.932C11.4875 18.9078 10.7496 18.6922 10.1048 18.3334C10.1041 18.3535 10.1041 18.3731 10.1041 18.3946C10.1041 20.7124 11.7542 22.6476 13.9447 23.0861C13.5424 23.1957 13.1192 23.2545 12.6824 23.2545C12.3744 23.2545 12.0743 23.2242 11.7826 23.1682C12.3921 25.0698 14.1594 26.4536 16.2547 26.4923C14.6162 27.7762 12.5522 28.5409 10.3089 28.5409C9.92297 28.5409 9.54171 28.519 9.16699 28.4747C11.2857 29.8324 13.8014 30.6245 16.5053 30.6245" fill="#0F0F18"/>
</svg>
