<svg width="47" height="46" viewBox="0 0 47 46" fill="none" xmlns="http://www.w3.org/2000/svg">
<g clip-path="url(#clip0_664_552)">
<path d="M0.5 23.1755C0.5 12.2504 0.5 6.78793 3.89397 3.39397C7.28793 0 12.7504 0 23.6755 0C34.6005 0 40.063 0 43.457 3.39397C46.8509 6.78793 46.8509 12.2504 46.8509 23.1755C46.8509 34.1005 46.8509 39.563 43.457 42.957C40.063 46.3509 34.6005 46.3509 23.6755 46.3509C12.7504 46.3509 7.28793 46.3509 3.89397 42.957C0.5 39.563 0.5 34.1005 0.5 23.1755Z" fill="#8EAFE0"/>
<path d="M28.31 30.1282C28.95 30.1282 29.4804 30.6521 29.3533 31.2793C29.1286 32.3871 28.5829 33.4139 27.7717 34.225C26.6852 35.3116 25.2115 35.922 23.6749 35.922C22.1382 35.922 20.6646 35.3116 19.578 34.225C18.7669 33.4139 18.2211 32.3871 17.9965 31.2793C17.8693 30.6521 18.3998 30.1282 19.0398 30.1282H28.31Z" fill="white"/>
<path d="M30.7469 20.5988C30.1287 20.7644 29.7501 21.4111 30.0636 21.9691C30.3935 22.5564 30.8498 23.0689 31.405 23.4667C32.2766 24.0913 33.3378 24.3944 34.408 24.3242C35.478 24.2541 36.4906 23.8151 37.2733 23.0821C38.056 22.3491 38.5602 21.3672 38.7002 20.3041C38.8401 19.2409 38.6072 18.1621 38.0409 17.2514C37.4746 16.3408 36.6101 15.6547 35.5947 15.31C34.5792 14.9652 33.4757 14.9833 32.4721 15.3611C31.8329 15.6016 31.2596 15.9786 30.7889 16.4604C30.3417 16.9182 30.54 17.641 31.0942 17.9609L31.6821 18.3003C32.576 18.8165 32.3998 20.156 31.4026 20.4232L30.7469 20.5988Z" fill="white"/>
<path d="M16.6042 20.5988C17.2225 20.7644 17.601 21.4111 17.2876 21.9691C16.9577 22.5564 16.5013 23.0689 15.9463 23.4667C15.0747 24.0913 14.0133 24.3944 12.9433 24.3242C11.8732 24.2541 10.8606 23.8151 10.0779 23.0821C9.29525 22.3491 8.79096 21.3672 8.65099 20.3041C8.51102 19.2409 8.74402 18.1621 9.3103 17.2514C9.87657 16.3408 10.7411 15.6547 11.7565 15.31C12.7719 14.9652 13.8756 14.9833 14.8792 15.3611C15.5182 15.6016 16.0917 15.9786 16.5624 16.4604C17.0096 16.9182 16.8112 17.641 16.257 17.9609L15.6691 18.3003C14.7751 18.8165 14.9515 20.156 15.9486 20.4232L16.6042 20.5988Z" fill="white"/>
</g>
<defs>
<clipPath id="clip0_664_552">
<rect width="46" height="46" fill="white" transform="translate(0.5)"/>
</clipPath>
</defs>
</svg>
