<svg width="336" height="21" viewBox="0 0 336 21" fill="none" xmlns="http://www.w3.org/2000/svg">
<g filter="url(#filter0_f_197_8317)">
<ellipse cx="168" cy="10.5" rx="160" ry="2.5" fill="#27E5FF"/>
</g>
<ellipse cx="168" cy="10.5" rx="160" ry="1.5" fill="#27E5FF"/>
<defs>
<filter id="filter0_f_197_8317" x="0" y="0" width="336" height="21" filterUnits="userSpaceOnUse" color-interpolation-filters="sRGB">
<feFlood flood-opacity="0" result="BackgroundImageFix"/>
<feBlend mode="normal" in="SourceGraphic" in2="BackgroundImageFix" result="shape"/>
<feGaussianBlur stdDeviation="4" result="effect1_foregroundBlur_197_8317"/>
</filter>
</defs>
</svg>
